<?xml version="1.0" encoding="utf-8"?>
<!-- Generator: Adobe Illustrator 18.1.1, SVG Export Plug-In . SVG Version: 6.00 Build 0)  -->
<svg version="1.1" id="Capa_1" xmlns="http://www.w3.org/2000/svg" xmlns:xlink="http://www.w3.org/1999/xlink" x="0px" y="0px"
	 viewBox="0 199.6 595.3 394.6" enable-background="new 0 199.6 595.3 394.6" xml:space="preserve">
<g>
	<path fill="#010002" d="M0,199.6v394.6h595.3V199.6H0z M297.6,443.2L53.5,228.8h488.3L297.6,443.2z M200.4,396.8L29.3,547V246.5
		L200.4,396.8z M222.6,416.3l75.1,65.9l75.1-65.9L542,564.9H53.3L222.6,416.3z M394.9,396.8L566,246.5V547L394.9,396.8z"/>
</g>
</svg>
